{
  "name": "accessToken",
  "plural": "accessTokens",
  "base": "AccessToken",
  "properties": {},
  "validations": [],
  "relations": {
    "user": {
      "type": "belongsTo",
      "model": "Account",
      "foreignKey": "accountId"
    }
  },
  "acls": [],
  "methods": {}
}
