{
  "name": "Album",
  "base": "PersistedModel",
  "idInjection": true,
  "options": {
    "validateUpsert": true
  },
  "properties": {
    "name": {
      "type":"string"
    }
  },
  "validations": [],
  "relations": {
    "account": {
      "type": "belongsTo",
      "model": "Account",
      "foreignKey": ""
    },
    "images": {
      "type": "hasMany",
      "model": "Image",
      "foreignKey": ""
    }
  },
  "acls": [],
  "methods": {}
}
