{
  "db": {
    "host": "localhost",
    "port": 27017,
    "url": "",
    "database": "colorize",
    "password": "",
    "name": "db",
    "user": "",
    "connector": "mongodb"
  },
  "email": {
    "name": "email",
    "connector": "mail",
    "transports": [
      {
        "type": "smtp",
        "host": "smtps.google.com",
        "secure": true,
        "port": 465,
        "tls": {
          "rejectUnauthorized": false
        },
        "auth": {
          "user": "et.colorize@gmail.com",
          "pass": "colorizeadmin"
        }
      }
    ]
  },
  "storage": {
    "name": "storage",
    "connector": "loopback-component-storage",
    "provider": "filesystem",
    "root": "./files",
    "nameConflict": "makeUnique"
  }
}
