{
  "_meta": {
    "sources": [
      "loopback/common/models",
      "loopback/server/models",
      "../common/models",
      "./models",
      "../node_modules/loopback-component-passport/lib/models"
    ],
    "mixins": [
      "loopback/common/mixins",
      "loopback/server/mixins",
      "../common/mixins",
      "./mixins"
    ]
  },
  "Account": {
    "dataSource": "db",
    "public": true
  },
  "Image": {
    "dataSource": "db",
    "public": true
  },
  "Album": {
    "dataSource": "db",
    "public": true
  },
  "Container": {
    "dataSource": "storage",
    "public": true
  },
  "AccountSettings": {
    "dataSource": "db",
    "public": true
  },
  "Colorization": {
    "dataSource": "db",
    "public": true
  },
  "Subscription": {
    "dataSource": "db",
    "public": true
  },
  "accessToken": {
    "dataSource": "db",
    "public": false
  },
  "ACL": {
    "dataSource": "db",
    "public": false
  },
  "RoleMapping": {
    "dataSource": "db",
    "public": false
  },
  "Role": {
    "dataSource": "db",
    "public": false
  },
  "Favorites": {
    "dataSource": "db",
    "public": true
  }
}
